   ______     ___       ___     _______
 .' ___  |  .'   `.   .'   `.  |_   __ \
/ .'   \_| /  .-.  \ /  .-.  \   | |__) |
| |        | |   | | | |   | |   |  ___/
\ `.___.'\ \  `-'  / \  `-'  /  _| |_
 `.____ .'  `.___.'   `.___.'  |_____|